<?xml version="1.0" encoding="utf-8"?>
<!-- Generator: Adobe Illustrator 22.1.0, SVG Export Plug-In . SVG Version: 6.00 Build 0)  -->
<svg version="1.1" id="Слой_1" xmlns="http://www.w3.org/2000/svg" xmlns:xlink="http://www.w3.org/1999/xlink" x="0px" y="0px"
	 viewBox="0 0 128 128" style="enable-background:new 0 0 128 128;" xml:space="preserve">
<style type="text/css">
	.st0{fill:#2A3944;}
</style>
<g>
	<path class="st0" d="M0,26.7c5.2,0.1,10.3,0.1,15.5,0.1c5.6,0,5.6,0,6,5.9c0.7,0,1.5,0,2.3,0c6.8,0,13.5,0.1,20.3-0.1
		c1.2,0,2.7-0.7,3.6-1.6c2.1-1.8,4-4.1,6.1-5.9c1-0.8,2.4-1.6,3.7-1.6c9.3-0.1,18.5-0.1,27.8-0.1c2.9,0,3.4,0.5,3.4,3.3
		c0,1.8-0.2,3.6-0.2,5.7c5.9,0,12,0,18.1,0c0.7-6.8,0.5-5.5,6.9-5.6c4.8-0.1,9.6,0,14.6,0c0,1.5,0,2.8,0,4.3c-5.6,0-11.1,0-16.7,0
		c0,12.8,0,25.4,0,38.4c5.5,0,11,0,16.7,0c0,1.5,0,2.7,0,4.3c-4.1,0-8.1,0-12.2,0c-2,0-4-0.1-6,0c-2.1,0.1-3.1-0.9-3.1-3
		c0-1.2,0-2.5,0-3.9c-4.1,0-8,0-12.1,0c2.7,5.4,0,9.1-3.8,12.7C84.9,85.3,79.2,91.2,73.5,97c-2.8,2.8-5.9,4.2-9.9,2.9
		c-0.6-0.2-1.8,0.4-2.4,1c-3.6,3.4-3.6,3.4-7.1-0.1c-8.5-8.5-17-17-25.5-25.5c-3.5-3.5-3.5-3.5-0.1-6.9c0.3-0.4,0.6-0.7,1.4-1.6
		c-1.7,0-3,0-4.3,0c-1.2,0-2.5,0-4.1,0c0,1.4,0,2.6,0,3.8c0,2.2-0.8,3.2-3.1,3.2C12.2,73.7,6.1,73.7,0,73.7c0-1.3,0-2.7,0-4
		c5.6,0,11.3,0,16.9,0c0-13.1,0-25.8,0-38.5c-5.7,0-11.3,0-16.9,0C0,29.7,0,28.2,0,26.7z M65.6,95.2c0.3,0.4,0.6,0.8,1,1.1
		c1-0.5,2.2-0.8,2.9-1.6c7-6.8,13.9-13.8,20.7-20.7c1.6-1.6,1.9-3.7,0.2-5.4C85.1,63.3,79.7,58,74,52.4c-1.4,1.5-2.8,3.1-4.2,4.6
		c-1.5,1.6-3,3.1-4.6,4.6c-3.1,3-6.8,3-10-0.1c-1.9-1.8-3.6-3.7-5.5-5.5c-1.7-1.6-1.6-3,0.1-4.6c5.2-5.1,10.2-10.3,15.5-15.3
		c0.8-0.8,2.3-1.3,3.5-1.3c3.2-0.2,6.3,0,9.5-0.1c4.2-0.1,6.2-2.5,6-6.8c-0.1-0.1-0.3-0.2-0.4-0.2c-5.2,0-10.3-0.1-15.5-0.1
		c-3.7,0-7.7-0.9-10.9,0.3c-3.1,1.2-5.1,4.8-7.8,7.2c-1,0.9-2.6,1.6-3.9,1.6C39.8,37,34,36.9,28.1,36.9c-2.1,0-4.3,0-6.6,0
		c0,8.7,0,17,0,25.4c3.9,0.2,7.6,0.5,11.4,0.7c0.1,0.3,0.2,0.6,0.3,1c1.1-1.3,2.1-2.6,3.3-3.8c3.9-3.8,8.5-3.8,12.4,0
		c6.8,6.7,13.5,13.4,20.2,20.2c3.8,3.9,3.8,8.4,0,12.4C68.1,93.8,66.8,94.4,65.6,95.2z M106.6,36.9c-7.2,0-14.1,0-21.1,0
		c-0.2,0-0.5,0-0.7,0.1c-3.9,2.7-8.3,2.1-12.6,1.9c-2.8-0.1-4.8,0.7-6.7,2.8c-3.8,4.1-7.9,8-12.1,12.1c1.7,1.6,3.2,2.9,4.6,4.4
		c1.6,1.7,3,1.7,4.6,0c3.1-3.2,6.2-6.3,9.4-9.4c2.1-2.1,2.8-2.1,4.9,0.1C80.9,53,85,57.1,89,61.1c0.6,0.6,1.3,1.3,2,1.4
		c5.1,0.1,10.3,0.1,15.6,0.1C106.6,54,106.6,45.7,106.6,36.9z M45.8,86c1.6,1.8,2.9,3.2,4.7,5.1c1.5-1.8,2.8-3.4,3.9-4.7
		c1.2,1,2.1,1.9,3.6,3.2c-1.7,1.3-3.4,2.6-4.9,3.7c1.8,1.8,3.2,3.1,4.8,4.7c2.8-2.8,5.7-5.7,8.5-8.6c1.8-1.9,1.8-3.9-0.1-5.8
		C59.5,76.7,52.5,69.8,45.6,63c-1.4-1.4-3.3-2-4.7-0.7c-3.3,3.1-6.2,6.6-8.9,9.5c1.1,1.3,2.3,2.8,4,4.8c1.5-1.8,2.8-3.4,4-4.9
		c1.2,1.1,2.2,2,3.6,3.4c-1.7,1.3-3.4,2.6-4.9,3.8c1.6,1.8,2.9,3.2,4.6,5c1.4-1.8,2.7-3.4,4.1-5.1c1.3,1.3,2.3,2.2,3.5,3.4
		C49,83.5,47.3,84.8,45.8,86z"/>
	<path class="st0" d="M61.7,17.9c-0.2,0.1-0.2,0.2-0.3,0.2c-6.3-1.2-10.2,2.5-13.8,6.8c-0.4,0.4-0.8,0.8-1.3,1.2c-1-0.9-2-1.8-3.2-3
		c3-2.9,5.8-5.6,8.6-8.2c0.5-0.5,1.3-0.7,2-0.7c2.6-0.1,5.1,0,7.9,0C61.7,15.4,61.7,16.6,61.7,17.9z"/>
	<path class="st0" d="M49.6,107.5c1.3-1.2,2.3-2.1,3.7-3.3c1.3,1.6,2.6,3.3,4.2,5.2c1.7-2.1,3-3.7,4.7-5.8c1.2,1.7,2,2.7,3.1,4.2
		c-1.8,1.7-3.9,3.8-6.2,5.6c-0.6,0.5-2.4,0.4-3-0.1C53.8,111.7,51.8,109.6,49.6,107.5z"/>
	<path class="st0" d="M76,104.9c-0.7-0.8-1.6-1.8-2.3-2.7c3.5-3.4,6.9-6.9,10.5-10.4c0.8,0.7,1.7,1.6,2.5,2.4
		C83,97.9,79.6,101.3,76,104.9z"/>
</g>
</svg>
